<mxfile host="app.diagrams.net" modified="2024-04-28T08:53:22.195Z" agent="Mozilla/5.0 (X11; Ubuntu; Linux x86_64; rv:124.0) Gecko/20100101 Firefox/124.0" etag="GrYmyVWT09QTHvpVgWTT" version="24.3.1" type="device">
  <diagram name="Azure" id="DEXSu3RQjpFJnYAK4o5T">
    <mxGraphModel dx="2261" dy="1963" grid="1" gridSize="10" guides="1" tooltips="1" connect="1" arrows="1" fold="1" page="1" pageScale="1" pageWidth="827" pageHeight="1169" math="0" shadow="0">
      <root>
        <mxCell id="0" />
        <mxCell id="1" parent="0" />
        <mxCell id="Rh7cTT9lBVFGzBSmE4-U-17" value="" style="whiteSpace=wrap;html=1;fillColor=#99c1f1;" vertex="1" parent="1">
          <mxGeometry x="10" y="40" width="810" height="730" as="geometry" />
        </mxCell>
        <mxCell id="Rh7cTT9lBVFGzBSmE4-U-13" value="" style="whiteSpace=wrap;html=1;fillColor=#9a9996;dashed=1;dashPattern=8 8;" vertex="1" parent="1">
          <mxGeometry x="30" y="170" width="770" height="580" as="geometry" />
        </mxCell>
        <mxCell id="Rh7cTT9lBVFGzBSmE4-U-3" value="Storage account" style="image;aspect=fixed;html=1;points=[];align=center;fontSize=12;image=img/lib/azure2/storage/Storage_Accounts_Classic.svg;labelBackgroundColor=none;" vertex="1" parent="1">
          <mxGeometry x="250" y="585" width="65" height="52" as="geometry" />
        </mxCell>
        <mxCell id="Rh7cTT9lBVFGzBSmE4-U-4" value="hunter-nosql [Cosmos DB]" style="image;aspect=fixed;html=1;points=[];align=center;fontSize=12;image=img/lib/azure2/databases/Azure_Cosmos_DB.svg;labelBackgroundColor=none;" vertex="1" parent="1">
          <mxGeometry x="414" y="585" width="64" height="64" as="geometry" />
        </mxCell>
        <mxCell id="Rh7cTT9lBVFGzBSmE4-U-5" value="controller_server [VM]" style="image;aspect=fixed;html=1;points=[];align=center;fontSize=12;image=img/lib/azure2/compute/Virtual_Machine.svg;labelBackgroundColor=none;" vertex="1" parent="1">
          <mxGeometry x="220" y="428" width="69" height="64" as="geometry" />
        </mxCell>
        <mxCell id="Rh7cTT9lBVFGzBSmE4-U-6" value="Managed identities" style="image;aspect=fixed;html=1;points=[];align=center;fontSize=12;image=img/lib/azure2/identity/Managed_Identities.svg;labelBackgroundColor=none;" vertex="1" parent="1">
          <mxGeometry x="400" y="296" width="68" height="66" as="geometry" />
        </mxCell>
        <mxCell id="Rh7cTT9lBVFGzBSmE4-U-7" value="Hunter Tenant" style="image;aspect=fixed;html=1;points=[];align=center;fontSize=12;image=img/lib/azure2/identity/Azure_Active_Directory.svg;labelBackgroundColor=none;" vertex="1" parent="1">
          <mxGeometry x="380" y="57" width="70" height="64" as="geometry" />
        </mxCell>
        <mxCell id="Rh7cTT9lBVFGzBSmE4-U-8" value="[NIC]" style="image;aspect=fixed;html=1;points=[];align=center;fontSize=12;image=img/lib/azure2/networking/Network_Interfaces.svg;labelBackgroundColor=none;" vertex="1" parent="1">
          <mxGeometry x="220" y="340" width="68" height="60" as="geometry" />
        </mxCell>
        <mxCell id="Rh7cTT9lBVFGzBSmE4-U-9" value="Browser" style="image;aspect=fixed;html=1;points=[];align=center;fontSize=12;image=img/lib/azure2/general/Browser.svg;" vertex="1" parent="1">
          <mxGeometry x="630" y="-52" width="65" height="52" as="geometry" />
        </mxCell>
        <mxCell id="Rh7cTT9lBVFGzBSmE4-U-10" value="hunter [resource group]" style="image;aspect=fixed;html=1;points=[];align=center;fontSize=12;image=img/lib/azure2/general/Resource_Groups.svg;labelBackgroundColor=none;" vertex="1" parent="1">
          <mxGeometry x="80" y="190" width="68" height="64" as="geometry" />
        </mxCell>
        <mxCell id="Rh7cTT9lBVFGzBSmE4-U-11" value="Pay-As-You-Go [subscription]" style="image;aspect=fixed;html=1;points=[];align=center;fontSize=12;image=img/lib/azure2/general/Subscriptions.svg;labelBackgroundColor=none;" vertex="1" parent="1">
          <mxGeometry x="50" y="50" width="44" height="71" as="geometry" />
        </mxCell>
        <mxCell id="Rh7cTT9lBVFGzBSmE4-U-12" value="&lt;div&gt;dynamic-public-ip-hunter-controller [public IP]&lt;/div&gt;" style="image;aspect=fixed;html=1;points=[];align=center;fontSize=12;image=img/lib/azure2/networking/Public_IP_Addresses_Classic.svg;labelBackgroundColor=none;" vertex="1" parent="1">
          <mxGeometry x="225" y="244" width="64" height="52" as="geometry" />
        </mxCell>
        <mxCell id="Rh7cTT9lBVFGzBSmE4-U-14" value="&lt;div&gt;controller-server-vnet&lt;/div&gt;&lt;div&gt;[virtual network]&lt;br&gt;&lt;/div&gt;" style="image;aspect=fixed;html=1;points=[];align=center;fontSize=12;image=img/lib/azure2/networking/Virtual_Networks.svg;labelBackgroundColor=none;" vertex="1" parent="1">
          <mxGeometry x="110" y="320" width="67" height="40" as="geometry" />
        </mxCell>
        <mxCell id="Rh7cTT9lBVFGzBSmE4-U-18" value="[disk]" style="image;aspect=fixed;html=1;points=[];align=center;fontSize=12;image=img/lib/azure2/compute/Disks.svg;labelBackgroundColor=none;" vertex="1" parent="1">
          <mxGeometry x="100" y="428" width="56.99999999999999" height="56.00000000000001" as="geometry" />
        </mxCell>
        <mxCell id="Rh7cTT9lBVFGzBSmE4-U-19" value="" style="rounded=0;whiteSpace=wrap;html=1;strokeColor=none;fillColor=#333333;" vertex="1" parent="1">
          <mxGeometry x="550" y="320" width="230" height="310" as="geometry" />
        </mxCell>
        <mxCell id="Rh7cTT9lBVFGzBSmE4-U-1" value="&lt;div&gt;hunter-appservice-plan&lt;/div&gt;&lt;div&gt;[app service plan]&lt;/div&gt;" style="image;aspect=fixed;html=1;points=[];align=center;fontSize=12;image=img/lib/azure2/app_services/App_Service_Plans.svg;labelBackgroundColor=none;" vertex="1" parent="1">
          <mxGeometry x="580" y="332" width="68" height="68" as="geometry" />
        </mxCell>
        <mxCell id="Rh7cTT9lBVFGzBSmE4-U-2" value="hunter-web-ui [app service]" style="image;aspect=fixed;html=1;points=[];align=center;fontSize=12;image=img/lib/azure2/app_services/App_Services.svg;labelBackgroundColor=none;" vertex="1" parent="1">
          <mxGeometry x="640" y="510" width="68" height="68" as="geometry" />
        </mxCell>
        <mxCell id="Rh7cTT9lBVFGzBSmE4-U-20" value="" style="endArrow=classic;html=1;rounded=0;exitX=0.569;exitY=1.096;exitDx=0;exitDy=0;exitPerimeter=0;" edge="1" parent="1" source="Rh7cTT9lBVFGzBSmE4-U-9" target="Rh7cTT9lBVFGzBSmE4-U-2">
          <mxGeometry width="50" height="50" relative="1" as="geometry">
            <mxPoint x="340" y="380" as="sourcePoint" />
            <mxPoint x="390" y="330" as="targetPoint" />
          </mxGeometry>
        </mxCell>
        <mxCell id="Rh7cTT9lBVFGzBSmE4-U-21" value="&lt;div&gt;https&lt;/div&gt;&lt;div&gt;[only GET, no auth]&lt;br&gt;&lt;/div&gt;" style="edgeLabel;html=1;align=center;verticalAlign=middle;resizable=0;points=[];labelBackgroundColor=none;" vertex="1" connectable="0" parent="Rh7cTT9lBVFGzBSmE4-U-20">
          <mxGeometry x="0.0455" relative="1" as="geometry">
            <mxPoint as="offset" />
          </mxGeometry>
        </mxCell>
        <mxCell id="Rh7cTT9lBVFGzBSmE4-U-22" value="&lt;div&gt;controller-server-nsg&lt;/div&gt;&lt;div&gt;[network security group]&lt;br&gt;&lt;/div&gt;" style="image;aspect=fixed;html=1;points=[];align=center;fontSize=12;image=img/lib/azure2/networking/Network_Security_Groups.svg;labelBackgroundColor=none;" vertex="1" parent="1">
          <mxGeometry x="310" y="220" width="56.00000000000001" height="68" as="geometry" />
        </mxCell>
        <mxCell id="Rh7cTT9lBVFGzBSmE4-U-23" value="hunter-core [database]" style="shape=cylinder3;whiteSpace=wrap;html=1;boundedLbl=1;backgroundOutline=1;size=15;verticalAlign=top;labelPosition=center;verticalLabelPosition=bottom;align=center;" vertex="1" parent="1">
          <mxGeometry x="370" y="670" width="140" height="100" as="geometry" />
        </mxCell>
        <mxCell id="Rh7cTT9lBVFGzBSmE4-U-24" value="sessions [container]" style="shape=cube;whiteSpace=wrap;html=1;boundedLbl=1;backgroundOutline=1;darkOpacity=0.05;darkOpacity2=0.1;" vertex="1" parent="1">
          <mxGeometry x="386" y="720" width="120" height="40" as="geometry" />
        </mxCell>
      </root>
    </mxGraphModel>
  </diagram>
</mxfile>
